                                Release Summary

                         certified-asterisk-13.1-cert2

                                Date: 2015-04-08

                           <asteriskteam@digium.com>

     ----------------------------------------------------------------------

                               Table of Contents

    1. Summary
    2. Contributors
    3. Other Changes
    4. Diffstat

     ----------------------------------------------------------------------

                                    Summary

                                 [Back to Top]

   This release has been made to address one or more security vulnerabilities
   that have been identified. A security advisory document has been published
   for each vulnerability that includes additional information. Users of
   versions of Asterisk that are affected are strongly encouraged to review
   the advisories and determine what action they should take to protect their
   systems from these issues.

   Security Advisories: AST-2015-003

   The data in this summary reflects changes that have been made since the
   previous release, certified-asterisk-13.1-cert1.

     ----------------------------------------------------------------------

                                  Contributors

                                 [Back to Top]

   This table lists the people who have submitted code, those that have
   tested patches, as well as those that reported issues on the issue tracker
   that were resolved in this release. For coders, the number is how many of
   their patches (of any size) were committed into this release. For testers,
   the number is the number of times their name was listed as assisting with
   testing a patch. Finally, for reporters, the number is the number of
   issues that they reported that were closed by commits that went into this
   release.

     Coders                   Testers                  Reporters              
   3 bebuild                

     ----------------------------------------------------------------------

                      Commits Not Associated with an Issue

                                 [Back to Top]

   This is a list of all changes that went into this release that did not
   directly close an issue from the issue tracker. The commits may have been
   marked as being related to an issue. If that is the case, the issue
   numbers are listed here, as well.

   +------------------------------------------------------------------------+
   | Revision | Author  | Summary                       | Issues Referenced |
   |----------+---------+-------------------------------+-------------------|
   | 434326   | bebuild | Move bad tag                  |                   |
   |----------+---------+-------------------------------+-------------------|
   | 434333   | bebuild | Update .version; remove       |                   |
   |          |         | summaries                     |                   |
   |----------+---------+-------------------------------+-------------------|
   | 434420   | bebuild | Merge changes for             |                   |
   |          |         | AST-2015-003                  |                   |
   +------------------------------------------------------------------------+

     ----------------------------------------------------------------------

                                Diffstat Results

                                 [Back to Top]

   This is a summary of the changes to the source code that went into this
   release that was generated using the diffstat utility.

 .version                                   |    2
 ChangeLog                                  |   25 +
 certified-asterisk-13.1-cert1-summary.html |  410 -----------------------
 certified-asterisk-13.1-cert1-summary.txt  |  509 -----------------------------
 main/tcptls.c                              |   10
 5 files changed, 34 insertions(+), 922 deletions(-)

     ----------------------------------------------------------------------
